<svg xmlns="http://www.w3.org/2000/svg" width="24" height="24" style="fill: rgba(0, 0, 0, 1);transform: rotate(90deg);msFilter:progid:DXImageTransform.Microsoft.BasicImage(rotation=1);">
	<path d="M4 6h16v2H4zm0 5h16v2H4zm0 5h16v2H4z">
	</path>
</svg>